{
  "version": 1,
  "notes": "",
  "documentation": "\"This file is a QMK Configurator export. You can import this at <https://config.qmk.fm>. It can also be used directly with QMK's source code.\n\nTo setup your QMK environment check out the tutorial: <https://docs.qmk.fm/#/newbs>\n\nYou can convert this file to a keymap.c using this command: `qmk json2c {keymap}`\n\nYou can compile this keymap using this command: `qmk compile {keymap}`\"\n",
  "keyboard": "boardsource/3x4",
  "keymap": "boardsource_3x4_layout_mine",
  "layout": "LAYOUT",
  "layers": [
    [
      "TO(1)",
      "KC_Q",
      "KC_W",
      "KC_E",
      "TT(2)",
      "KC_A",
      "KC_S",
      "KC_D",
      "TT(3)",
      "KC_Z",
      "KC_X",
      "KC_C"
    ],
    [
      "TO(2)",
      "KC_BTN1",
      "KC_MS_U",
      "KC_BTN2",
      "KC_NO",
      "KC_MS_L",
      "KC_MS_D",
      "KC_MS_R",
      "KC_NO",
      "KC_WH_U",
      "KC_WBAK",
      "KC_WH_D"
    ],
    [
      "TO(3)",
      "LSFT(KC_7)",
      "LSFT(KC_8)",
      "LSFT(KC_9)",
      "KC_TRNS",
      "LSFT(KC_4)",
      "LSFT(KC_5)",
      "LSFT(KC_6)",
      "KC_TRNS",
      "LSFT(KC_1)",
      "LSFT(KC_2)",
      "LSFT(KC_3)"
    ],
    [
      "TO(0)",
      "RGUI(KC_1)",
      "RGUI(KC_2)",
      "RGUI(KC_3)",
      "KC_TRNS",
      "RGUI(KC_4)",
      "RGUI(KC_5)",
      "RGUI(KC_0)",
      "KC_TRNS",
      "LALT(KC_A)",
      "LALT(KC_U)",
      "RGUI(KC_9)"
    ]
  ],
  "author": ""
}